{
    "tried_feed_in": false,
    "analysis": [
        {
            "analysis": {
                "arrival_time": "2020-03-27-06:27:20",
                "departure_time": "2020-03-27-09:56:21",
                "duration": {
                    "in_seconds": 12541,
                    "human_readable": "3 hours, 29 minutes and 1 seconds"
                },
                "images": {
                    "original": "/media/images/original/2020-03-27-06_27_20.jpg",
                    "extracted_imageai": "/media/images/extracted/imageai/2020-03-27-06_27_20_imageai.jpg",
                    "extracted_pr": "/media/images/extracted/pr/2020-03-27-06_27_20_pr.jpg",
                    "extracted_plate": "/media/images/extracted/plate/2020-03-27-06_27_20_plates.jpg",
                    "analyzed_comparison": "/media/images/analyzed/comparison/2020-03-27-06_27_20_analyzed_comparison.jpg",
                    "analyzed_imageai": "/media/images/analyzed/imageai/2020-03-27-06_27_20_analyzed_imageai.jpg",
                    "analyzed_pr": "/media/images/analyzed/pr/2020-03-27-06_27_20_analyzed_pr.jpg"
                },
                "successful_feed_in": null,
                "imageai_analysis": {
                    "detection": {
                        "class": "truck",
                        "probability": 75.26
                    },
                    "prediction": {
                        "class": "pickup",
                        "probability": 64.31
                    },
                    "colours": {
                        "colour1": {
                            "name": "grey",
                            "r": 124.0,
                            "g": 121.0,
                            "b": 120.0,
                            "hex": "#7c7978",
                            "percent": 9.638692226612697
                        },
                        "colour2": {
                            "name": "black",
                            "r": 22.0,
                            "g": 22.0,
                            "b": 24.0,
                            "hex": "#161618",
                            "percent": 23.43750150404528
                        },
                        "colour3": {
                            "name": "light grey",
                            "r": 213.0,
                            "g": 215.0,
                            "b": 212.0,
                            "hex": "#d5d7d4",
                            "percent": 5.042522368161407
                        },
                        "colour4": {
                            "name": "sienna",
                            "r": 158.0,
                            "g": 82.0,
                            "b": 54.0,
                            "hex": "#9e5236",
                            "percent": 6.036106712614248
                        },
                        "colour5": {
                            "name": "peru",
                            "r": 227.0,
                            "g": 122.0,
                            "b": 61.0,
                            "hex": "#e37a3d",
                            "percent": 7.599976897864496
                        },
                        "colour6": {
                            "name": "dark slate grey",
                            "r": 62.0,
                            "g": 66.0,
                            "b": 72.0,
                            "hex": "#3e4248",
                            "percent": 13.482935703869126
                        },
                        "colour7": {
                            "name": "dark grey",
                            "r": 161.0,
                            "g": 162.0,
                            "b": 164.0,
                            "hex": "#a1a2a4",
                            "percent": 9.737598244237702
                        },
                        "colour8": {
                            "name": "dark salmon",
                            "r": 237.0,
                            "g": 166.0,
                            "b": 132.0,
                            "hex": "#eda684",
                            "percent": 6.660201277355575
                        },
                        "colour9": {
                            "name": "saddle brown",
                            "r": 119.0,
                            "g": 40.0,
                            "b": 18.0,
                            "hex": "#772812",
                            "percent": 9.511101057403994
                        },
                        "colour10": {
                            "name": "snow",
                            "r": 248.0,
                            "g": 250.0,
                            "b": 249.0,
                            "hex": "#f8faf9",
                            "percent": 8.853364007835474
                        }
                    }
                },
                "pr_analysis": {
                    "detection": {
                        "class": "Car",
                        "probability": 70.1
                    },
                    "prediction": {
                        "class": "pickup",
                        "probability": 68.81
                    },
                    "colours": {
                        "colour1": {
                            "name": "saddle brown",
                            "r": 151.0,
                            "g": 64.0,
                            "b": 35.0,
                            "hex": "#974023",
                            "percent": 22.181500005158007
                        },
                        "colour2": {
                            "name": "light grey",
                            "r": 217.0,
                            "g": 217.0,
                            "b": 210.0,
                            "hex": "#d9d9d2",
                            "percent": 6.5978432021667395
                        },
                        "colour3": {
                            "name": "black",
                            "r": 19.0,
                            "g": 18.0,
                            "b": 19.0,
                            "hex": "#131213",
                            "percent": 14.802828089201661
                        },
                        "colour4": {
                            "name": "dark salmon",
                            "r": 234.0,
                            "g": 163.0,
                            "b": 127.0,
                            "hex": "#eaa37f",
                            "percent": 9.845981864441908
                        },
                        "colour5": {
                            "name": "dark slate grey",
                            "r": 63.0,
                            "g": 69.0,
                            "b": 74.0,
                            "hex": "#3f454a",
                            "percent": 6.453700308448912
                        },
                        "colour6": {
                            "name": "peru",
                            "r": 227.0,
                            "g": 119.0,
                            "b": 56.0,
                            "hex": "#e37738",
                            "percent": 10.499642221769985
                        },
                        "colour7": {
                            "name": "dark grey",
                            "r": 149.0,
                            "g": 157.0,
                            "b": 164.0,
                            "hex": "#959da4",
                            "percent": 8.380169614077799
                        },
                        "colour8": {
                            "name": "snow",
                            "r": 250.0,
                            "g": 250.0,
                            "b": 248.0,
                            "hex": "#fafaf8",
                            "percent": 12.55018507872528
                        },
                        "colour9": {
                            "name": "dim grey",
                            "r": 151.0,
                            "g": 110.0,
                            "b": 94.0,
                            "hex": "#976e5e",
                            "percent": 8.688149616009708
                        }
                    },
                    "license_plate": {
                        "plate_number": "GAPGD24",
                        "plate_probability": 90.4
                    }
                }
            },
            "timing": {
                "get_duration_time": 0.083,
                "imageai_detection_time": 24.551,
                "imageai_prediction_time": 21.707,
                "imageai_colour_detection_time": 48.995,
                "total_imageai_analysis_time": 95.253,
                "pr_detection_time": 2.18,
                "pr_prediction_time": 20.327,
                "pr_colour_detection_time": 23.721,
                "total_pr_analysis_time": 46.229,
                "total_image_analysis_time": 141.575,
                "entry_total_time": 141.658
            }
        },
        {
            "analysis": {
                "arrival_time": "2020-03-27-10:29:46",
                "departure_time": "2020-03-27-11:19:24",
                "duration": {
                    "in_seconds": 2978,
                    "human_readable": "0 hours, 49 minutes and 38 seconds"
                },
                "images": {
                    "original": "/media/images/original/2020-03-27-10_29_46.jpg",
                    "extracted_imageai": "/media/images/extracted/imageai/2020-03-27-10_29_46_imageai.jpg",
                    "extracted_pr": "/media/images/extracted/pr/2020-03-27-10_29_46_pr.jpg",
                    "extracted_plate": "/media/images/extracted/plate/2020-03-27-10_29_46_plates.jpg",
                    "analyzed_comparison": "/media/images/analyzed/comparison/2020-03-27-10_29_46_analyzed_comparison.jpg",
                    "analyzed_imageai": "/media/images/analyzed/imageai/2020-03-27-10_29_46_analyzed_imageai.jpg",
                    "analyzed_pr": "/media/images/analyzed/pr/2020-03-27-10_29_46_analyzed_pr.jpg"
                },
                "successful_feed_in": null,
                "imageai_analysis": {
                    "detection": {
                        "class": "car",
                        "probability": 90.74
                    },
                    "prediction": {
                        "class": "minivan",
                        "probability": 66.04
                    },
                    "colours": {
                        "colour1": {
                            "name": "dark slate grey",
                            "r": 33.0,
                            "g": 43.0,
                            "b": 45.0,
                            "hex": "#212b2d",
                            "percent": 23.82991480592301
                        },
                        "colour2": {
                            "name": "light blue",
                            "r": 197.0,
                            "g": 216.0,
                            "b": 233.0,
                            "hex": "#c5d8e9",
                            "percent": 6.468559143178751
                        },
                        "colour3": {
                            "name": "slate grey",
                            "r": 108.0,
                            "g": 129.0,
                            "b": 148.0,
                            "hex": "#6c8194",
                            "percent": 5.5436303655440105
                        },
                        "colour4": {
                            "name": "black",
                            "r": 7.0,
                            "g": 11.0,
                            "b": 10.0,
                            "hex": "#070b0a",
                            "percent": 38.56297157875716
                        },
                        "colour5": {
                            "name": "dark grey",
                            "r": 137.0,
                            "g": 162.0,
                            "b": 186.0,
                            "hex": "#89a2ba",
                            "percent": 5.314583914777673
                        },
                        "colour6": {
                            "name": "light steel blue",
                            "r": 164.0,
                            "g": 191.0,
                            "b": 214.0,
                            "hex": "#a4bfd6",
                            "percent": 8.038081377366753
                        },
                        "colour7": {
                            "name": "dim grey",
                            "r": 82.0,
                            "g": 100.0,
                            "b": 116.0,
                            "hex": "#526474",
                            "percent": 5.996779468086195
                        },
                        "colour8": {
                            "name": "lavender",
                            "r": 225.0,
                            "g": 242.0,
                            "b": 251.0,
                            "hex": "#e1f2fb",
                            "percent": 6.245479346366454
                        }
                    }
                },
                "pr_analysis": {
                    "detection": {
                        "class": "Car",
                        "probability": 65.8
                    },
                    "prediction": {
                        "class": "police van",
                        "probability": 35.31
                    },
                    "colours": {
                        "colour1": {
                            "name": "light slate grey",
                            "r": 127.0,
                            "g": 150.0,
                            "b": 171.0,
                            "hex": "#7f96ab",
                            "percent": 7.867879862800856
                        },
                        "colour2": {
                            "name": "midnight blue",
                            "r": 24.0,
                            "g": 39.0,
                            "b": 41.0,
                            "hex": "#182729",
                            "percent": 8.431206209140745
                        },
                        "colour3": {
                            "name": "light steel blue",
                            "r": 162.0,
                            "g": 192.0,
                            "b": 218.0,
                            "hex": "#a2c0da",
                            "percent": 14.026450411890593
                        },
                        "colour4": {
                            "name": "dim grey",
                            "r": 80.0,
                            "g": 98.0,
                            "b": 110.0,
                            "hex": "#50626e",
                            "percent": 6.9865659171528245
                        },
                        "colour5": {
                            "name": "lavender",
                            "r": 220.0,
                            "g": 236.0,
                            "b": 246.0,
                            "hex": "#dcecf6",
                            "percent": 9.82005438128463
                        },
                        "colour6": {
                            "name": "black",
                            "r": 7.0,
                            "g": 14.0,
                            "b": 14.0,
                            "hex": "#070e0e",
                            "percent": 16.14600128990648
                        },
                        "colour7": {
                            "name": "dark grey",
                            "r": 145.0,
                            "g": 173.0,
                            "b": 198.0,
                            "hex": "#91adc6",
                            "percent": 13.160710621207237
                        },
                        "colour8": {
                            "name": "dark slate grey",
                            "r": 52.0,
                            "g": 70.0,
                            "b": 72.0,
                            "hex": "#344648",
                            "percent": 5.838567470903814
                        },
                        "colour9": {
                            "name": "slate grey",
                            "r": 105.0,
                            "g": 124.0,
                            "b": 140.0,
                            "hex": "#697c8c",
                            "percent": 7.754829820292574
                        },
                        "colour10": {
                            "name": "light blue",
                            "r": 189.0,
                            "g": 211.0,
                            "b": 228.0,
                            "hex": "#bdd3e4",
                            "percent": 9.967734015420247
                        }
                    },
                    "license_plate": {
                        "plate_number": "PA3494T",
                        "plate_probability": 90.0
                    }
                }
            },
            "timing": {
                "get_duration_time": 0.0,
                "imageai_detection_time": 18.765,
                "imageai_prediction_time": 23.778,
                "imageai_colour_detection_time": 157.268,
                "total_imageai_analysis_time": 199.811,
                "pr_detection_time": 2.722,
                "pr_prediction_time": 25.322,
                "pr_colour_detection_time": 38.119,
                "total_pr_analysis_time": 66.163,
                "total_image_analysis_time": 266.164,
                "entry_total_time": 266.165
            }
        },
        {
            "analysis": {
                "arrival_time": "2020-03-27-11:51:00",
                "departure_time": "2020-03-27-13:13:35",
                "duration": {
                    "in_seconds": 4955,
                    "human_readable": "1 hours, 22 minutes and 35 seconds"
                },
                "images": {
                    "original": "/media/images/original/2020-03-27-11_51_00.jpg",
                    "extracted_imageai": "/media/images/extracted/imageai/2020-03-27-11_51_00_imageai.jpg",
                    "extracted_pr": "/media/images/extracted/pr/2020-03-27-11_51_00_pr.jpg",
                    "extracted_plate": "/media/images/extracted/plate/2020-03-27-11_51_00_plates.jpg",
                    "analyzed_comparison": "/media/images/analyzed/comparison/2020-03-27-11_51_00_analyzed_comparison.jpg",
                    "analyzed_imageai": "/media/images/analyzed/imageai/2020-03-27-11_51_00_analyzed_imageai.jpg",
                    "analyzed_pr": "/media/images/analyzed/pr/2020-03-27-11_51_00_analyzed_pr.jpg"
                },
                "successful_feed_in": null,
                "imageai_analysis": {
                    "detection": {
                        "class": "car",
                        "probability": 98.17
                    },
                    "prediction": {
                        "class": "cab",
                        "probability": 32.36
                    },
                    "colours": {
                        "colour1": {
                            "name": "black",
                            "r": 3.0,
                            "g": 1.0,
                            "b": 7.0,
                            "hex": "#030107",
                            "percent": 46.5635902773157
                        },
                        "colour2": {
                            "name": "dark grey",
                            "r": 165.0,
                            "g": 169.0,
                            "b": 159.0,
                            "hex": "#a5a99f",
                            "percent": 4.70139819140295
                        },
                        "colour3": {
                            "name": "dim grey",
                            "r": 96.0,
                            "g": 92.0,
                            "b": 93.0,
                            "hex": "#605c5d",
                            "percent": 8.25286963814249
                        },
                        "colour4": {
                            "name": "maroon",
                            "r": 110.0,
                            "g": 24.0,
                            "b": 33.0,
                            "hex": "#6e1821",
                            "percent": 1.3071087179500056
                        },
                        "colour5": {
                            "name": "lavender",
                            "r": 231.0,
                            "g": 234.0,
                            "b": 233.0,
                            "hex": "#e7eae9",
                            "percent": 4.699954427271323
                        },
                        "colour6": {
                            "name": "grey",
                            "r": 132.0,
                            "g": 127.0,
                            "b": 124.0,
                            "hex": "#847f7c",
                            "percent": 4.5321639262349525
                        },
                        "colour7": {
                            "name": "dark slate grey",
                            "r": 73.0,
                            "g": 62.0,
                            "b": 59.0,
                            "hex": "#493e3b",
                            "percent": 24.379087264870456
                        },
                        "colour8": {
                            "name": "silver",
                            "r": 200.0,
                            "g": 204.0,
                            "b": 191.0,
                            "hex": "#c8ccbf",
                            "percent": 5.563827556812118
                        }
                    }
                },
                "pr_analysis": {
                    "detection": {
                        "class": "Car",
                        "probability": 81.1
                    },
                    "prediction": {
                        "class": "proboscis monkey",
                        "probability": 2.56
                    },
                    "colours": {
                        "colour1": {
                            "name": "light cyan",
                            "r": 227.0,
                            "g": 242.0,
                            "b": 254.0,
                            "hex": "#e3f2fe",
                            "percent": 18.314419610031806
                        },
                        "colour2": {
                            "name": "silver",
                            "r": 187.0,
                            "g": 210.0,
                            "b": 201.0,
                            "hex": "#bbd2c9",
                            "percent": 10.134123546035205
                        },
                        "colour3": {
                            "name": "dark sea green",
                            "r": 143.0,
                            "g": 164.0,
                            "b": 157.0,
                            "hex": "#8fa49d",
                            "percent": 2.2647744084478347
                        },
                        "colour4": {
                            "name": "gainsboro",
                            "r": 209.0,
                            "g": 228.0,
                            "b": 234.0,
                            "hex": "#d1e4ea",
                            "percent": 32.720298367307166
                        },
                        "colour5": {
                            "name": "grey",
                            "r": 112.0,
                            "g": 124.0,
                            "b": 124.0,
                            "hex": "#707c7c",
                            "percent": 1.351866124502795
                        },
                        "colour6": {
                            "name": "alice blue",
                            "r": 239.0,
                            "g": 248.0,
                            "b": 255.0,
                            "hex": "#eff8ff",
                            "percent": 18.55183777606506
                        },
                        "colour7": {
                            "name": "lavender",
                            "r": 217.0,
                            "g": 235.0,
                            "b": 247.0,
                            "hex": "#d9ebf7",
                            "percent": 16.09526846856424
                        },
                        "colour8": {
                            "name": "dark slate grey",
                            "r": 66.0,
                            "g": 72.0,
                            "b": 69.0,
                            "hex": "#424845",
                            "percent": 0.5674116990458978
                        }
                    },
                    "license_plate": {
                        "plate_number": "CCC444",
                        "plate_probability": 89.8
                    }
                }
            },
            "timing": {
                "get_duration_time": 0.0,
                "imageai_detection_time": 23.694,
                "imageai_prediction_time": 27.757,
                "imageai_colour_detection_time": 46.027,
                "total_imageai_analysis_time": 97.478,
                "pr_detection_time": 2.259,
                "pr_prediction_time": 30.875,
                "pr_colour_detection_time": 5.854,
                "total_pr_analysis_time": 38.988,
                "total_image_analysis_time": 136.64,
                "entry_total_time": 136.64
            }
        },
        {
            "analysis": {
                "arrival_time": "2020-03-27-13:42:44",
                "departure_time": "2020-03-27-14:27:03",
                "duration": {
                    "in_seconds": 2659,
                    "human_readable": "0 hours, 44 minutes and 19 seconds"
                },
                "images": {
                    "original": "/media/images/original/2020-03-27-13_42_44.jpg",
                    "extracted_imageai": "/media/images/extracted/imageai/2020-03-27-13_42_44_imageai.jpg",
                    "extracted_pr": "/media/images/extracted/pr/2020-03-27-13_42_44_pr.jpg",
                    "extracted_plate": "/media/images/extracted/plate/2020-03-27-13_42_44_plates.jpg",
                    "analyzed_comparison": "/media/images/analyzed/comparison/2020-03-27-13_42_44_analyzed_comparison.jpg",
                    "analyzed_imageai": "/media/images/analyzed/imageai/2020-03-27-13_42_44_analyzed_imageai.jpg",
                    "analyzed_pr": "/media/images/analyzed/pr/2020-03-27-13_42_44_analyzed_pr.jpg"
                },
                "successful_feed_in": null,
                "imageai_analysis": {
                    "detection": {
                        "class": "truck",
                        "probability": 69.66
                    },
                    "prediction": {
                        "class": "cab",
                        "probability": 63.86
                    },
                    "colours": {
                        "colour1": {
                            "name": "dim grey",
                            "r": 126.0,
                            "g": 108.0,
                            "b": 89.0,
                            "hex": "#7e6c59",
                            "percent": 15.232547058204954
                        },
                        "colour2": {
                            "name": "black",
                            "r": 34.0,
                            "g": 33.0,
                            "b": 30.0,
                            "hex": "#22211e",
                            "percent": 30.973631631526366
                        },
                        "colour3": {
                            "name": "dark grey",
                            "r": 181.0,
                            "g": 181.0,
                            "b": 172.0,
                            "hex": "#b5b5ac",
                            "percent": 9.524398299069352
                        },
                        "colour4": {
                            "name": "dark slate grey",
                            "r": 86.0,
                            "g": 80.0,
                            "b": 74.0,
                            "hex": "#56504a",
                            "percent": 27.223516614963984
                        },
                        "colour5": {
                            "name": "dark golden rod",
                            "r": 210.0,
                            "g": 146.0,
                            "b": 7.0,
                            "hex": "#d29207",
                            "percent": 2.649899442662601
                        },
                        "colour6": {
                            "name": "grey",
                            "r": 141.0,
                            "g": 140.0,
                            "b": 137.0,
                            "hex": "#8d8c89",
                            "percent": 8.182155016036594
                        },
                        "colour7": {
                            "name": "light grey",
                            "r": 208.0,
                            "g": 213.0,
                            "b": 212.0,
                            "hex": "#d0d5d4",
                            "percent": 6.213851937536148
                        }
                    }
                },
                "pr_analysis": {
                    "detection": {
                        "class": "Car",
                        "probability": 82.8
                    },
                    "prediction": {
                        "class": "birdhouse",
                        "probability": 5.5
                    },
                    "colours": {
                        "colour1": {
                            "name": "dark olive green",
                            "r": 78.0,
                            "g": 68.0,
                            "b": 52.0,
                            "hex": "#4e4434",
                            "percent": 26.1833752545215
                        },
                        "colour2": {
                            "name": "linen",
                            "r": 237.0,
                            "g": 234.0,
                            "b": 227.0,
                            "hex": "#edeae3",
                            "percent": 13.484249610731824
                        },
                        "colour3": {
                            "name": "grey",
                            "r": 150.0,
                            "g": 144.0,
                            "b": 131.0,
                            "hex": "#969083",
                            "percent": 5.414720325787519
                        },
                        "colour4": {
                            "name": "silver",
                            "r": 198.0,
                            "g": 194.0,
                            "b": 184.0,
                            "hex": "#c6c2b8",
                            "percent": 7.854234040004791
                        },
                        "colour5": {
                            "name": "white smoke",
                            "r": 250.0,
                            "g": 249.0,
                            "b": 246.0,
                            "hex": "#faf9f6",
                            "percent": 17.47125404240029
                        },
                        "colour6": {
                            "name": "dim grey",
                            "r": 122.0,
                            "g": 116.0,
                            "b": 101.0,
                            "hex": "#7a7465",
                            "percent": 4.981734339441849
                        },
                        "colour7": {
                            "name": "dark grey",
                            "r": 175.0,
                            "g": 170.0,
                            "b": 159.0,
                            "hex": "#afaa9f",
                            "percent": 6.235177865612648
                        },
                        "colour8": {
                            "name": "light grey",
                            "r": 218.0,
                            "g": 215.0,
                            "b": 206.0,
                            "hex": "#dad7ce",
                            "percent": 10.049107677566175
                        },
                        "colour9": {
                            "name": "dark slate grey",
                            "r": 59.0,
                            "g": 51.0,
                            "b": 35.0,
                            "hex": "#3b3323",
                            "percent": 8.326146843933405
                        }
                    },
                    "license_plate": {
                        "plate_number": "271KLN75",
                        "plate_probability": 90.0
                    }
                }
            },
            "timing": {
                "get_duration_time": 0.001,
                "imageai_detection_time": 30.056,
                "imageai_prediction_time": 36.782,
                "imageai_colour_detection_time": 66.744,
                "total_imageai_analysis_time": 133.582,
                "pr_detection_time": 2.053,
                "pr_prediction_time": 36.481,
                "pr_colour_detection_time": 7.892,
                "total_pr_analysis_time": 46.426,
                "total_image_analysis_time": 180.166,
                "entry_total_time": 180.167
            }
        },
        {
            "analysis": {
                "arrival_time": "2020-03-27-15:20:44",
                "departure_time": "2020-03-27-15:26:35",
                "duration": {
                    "in_seconds": 351,
                    "human_readable": "0 hours, 5 minutes and 51 seconds"
                },
                "images": {
                    "original": "/media/images/original/2020-03-27-15_20_44.jpg",
                    "extracted_imageai": "/media/images/extracted/imageai/2020-03-27-15_20_44_imageai.jpg",
                    "extracted_pr": "/media/images/extracted/pr/2020-03-27-15_20_44_pr.jpg",
                    "extracted_plate": "/media/images/extracted/plate/2020-03-27-15_20_44_plates.jpg",
                    "analyzed_comparison": "/media/images/analyzed/comparison/2020-03-27-15_20_44_analyzed_comparison.jpg",
                    "analyzed_imageai": "/media/images/analyzed/imageai/2020-03-27-15_20_44_analyzed_imageai.jpg",
                    "analyzed_pr": "/media/images/analyzed/pr/2020-03-27-15_20_44_analyzed_pr.jpg"
                },
                "successful_feed_in": null,
                "imageai_analysis": {
                    "detection": {
                        "class": "truck",
                        "probability": 76.25
                    },
                    "prediction": {
                        "class": "pickup",
                        "probability": 70.87
                    },
                    "colours": {
                        "colour1": {
                            "name": "red",
                            "r": 228.0,
                            "g": 11.0,
                            "b": 18.0,
                            "hex": "#e40b12",
                            "percent": 1.1956937387458697
                        },
                        "colour2": {
                            "name": "dim grey",
                            "r": 71.0,
                            "g": 96.0,
                            "b": 111.0,
                            "hex": "#47606f",
                            "percent": 8.244800239413436
                        },
                        "colour3": {
                            "name": "light grey",
                            "r": 206.0,
                            "g": 211.0,
                            "b": 216.0,
                            "hex": "#ced3d8",
                            "percent": 8.394795070916834
                        },
                        "colour4": {
                            "name": "midnight blue",
                            "r": 32.0,
                            "g": 38.0,
                            "b": 44.0,
                            "hex": "#20262c",
                            "percent": 22.972196379739206
                        },
                        "colour5": {
                            "name": "light slate grey",
                            "r": 116.0,
                            "g": 136.0,
                            "b": 155.0,
                            "hex": "#74889b",
                            "percent": 5.1293895174214486
                        },
                        "colour6": {
                            "name": "white smoke",
                            "r": 246.0,
                            "g": 246.0,
                            "b": 247.0,
                            "hex": "#f6f6f7",
                            "percent": 21.981146191830018
                        },
                        "colour7": {
                            "name": "black",
                            "r": 11.0,
                            "g": 12.0,
                            "b": 13.0,
                            "hex": "#0b0c0d",
                            "percent": 14.283194579078359
                        },
                        "colour8": {
                            "name": "dark grey",
                            "r": 159.0,
                            "g": 176.0,
                            "b": 193.0,
                            "hex": "#9fb0c1",
                            "percent": 5.369525821158452
                        },
                        "colour9": {
                            "name": "dark slate grey",
                            "r": 47.0,
                            "g": 61.0,
                            "b": 76.0,
                            "hex": "#2f3d4c",
                            "percent": 11.776509869659913
                        },
                        "colour10": {
                            "name": "gold",
                            "r": 243.0,
                            "g": 229.0,
                            "b": 23.0,
                            "hex": "#f3e517",
                            "percent": 0.6527485920364672
                        }
                    }
                },
                "pr_analysis": {
                    "detection": {
                        "class": "Car",
                        "probability": 83.2
                    },
                    "prediction": {
                        "class": "pickup",
                        "probability": 42.88
                    },
                    "colours": {
                        "colour1": {
                            "name": "white smoke",
                            "r": 247.0,
                            "g": 246.0,
                            "b": 246.0,
                            "hex": "#f7f6f6",
                            "percent": 20.380755608028338
                        },
                        "colour2": {
                            "name": "dark slate grey",
                            "r": 45.0,
                            "g": 60.0,
                            "b": 76.0,
                            "hex": "#2d3c4c",
                            "percent": 13.326951690899385
                        },
                        "colour3": {
                            "name": "dark grey",
                            "r": 152.0,
                            "g": 173.0,
                            "b": 195.0,
                            "hex": "#98adc3",
                            "percent": 5.239079102715467
                        },
                        "colour4": {
                            "name": "black",
                            "r": 11.0,
                            "g": 12.0,
                            "b": 13.0,
                            "hex": "#0b0c0d",
                            "percent": 13.55377965745338
                        },
                        "colour5": {
                            "name": "crimson",
                            "r": 226.0,
                            "g": 12.0,
                            "b": 19.0,
                            "hex": "#e20c13",
                            "percent": 1.1830635118306352
                        },
                        "colour6": {
                            "name": "gold",
                            "r": 244.0,
                            "g": 233.0,
                            "b": 20.0,
                            "hex": "#f4e914",
                            "percent": 0.8703158609758859
                        },
                        "colour7": {
                            "name": "dim grey",
                            "r": 65.0,
                            "g": 96.0,
                            "b": 113.0,
                            "hex": "#416071",
                            "percent": 8.097071048503178
                        },
                        "colour8": {
                            "name": "light grey",
                            "r": 203.0,
                            "g": 208.0,
                            "b": 213.0,
                            "hex": "#cbd0d5",
                            "percent": 9.352408177127979
                        },
                        "colour9": {
                            "name": "light slate grey",
                            "r": 108.0,
                            "g": 134.0,
                            "b": 158.0,
                            "hex": "#6c869e",
                            "percent": 4.509671523992819
                        },
                        "colour10": {
                            "name": "midnight blue",
                            "r": 31.0,
                            "g": 37.0,
                            "b": 44.0,
                            "hex": "#1f252c",
                            "percent": 23.486903818472936
                        }
                    },
                    "license_plate": {
                        "plate_number": "577TDR",
                        "plate_probability": 89.3
                    }
                }
            },
            "timing": {
                "get_duration_time": 0.0,
                "imageai_detection_time": 34.873,
                "imageai_prediction_time": 40.01,
                "imageai_colour_detection_time": 44.166,
                "total_imageai_analysis_time": 119.049,
                "pr_detection_time": 1.809,
                "pr_prediction_time": 39.388,
                "pr_colour_detection_time": 24.087,
                "total_pr_analysis_time": 65.285,
                "total_image_analysis_time": 184.411,
                "entry_total_time": 184.411
            }
        },
        {
            "analysis": {
                "arrival_time": "2020-03-27-15:32:28",
                "departure_time": "2020-03-27-15:37:17",
                "duration": {
                    "in_seconds": 289,
                    "human_readable": "0 hours, 4 minutes and 49 seconds"
                },
                "images": {
                    "original": "/media/images/original/2020-03-27-15_32_28.jpg",
                    "extracted_imageai": "/media/images/extracted/imageai/2020-03-27-15_32_28_imageai.jpg",
                    "extracted_pr": "/media/images/extracted/pr/2020-03-27-15_32_28_pr.jpg",
                    "extracted_plate": "/media/images/extracted/plate/2020-03-27-15_32_28_plates.jpg",
                    "analyzed_comparison": "/media/images/analyzed/comparison/2020-03-27-15_32_28_analyzed_comparison.jpg",
                    "analyzed_imageai": "/media/images/analyzed/imageai/2020-03-27-15_32_28_analyzed_imageai.jpg",
                    "analyzed_pr": "/media/images/analyzed/pr/2020-03-27-15_32_28_analyzed_pr.jpg"
                },
                "successful_feed_in": null,
                "imageai_analysis": {
                    "detection": {
                        "class": "car",
                        "probability": 95.75
                    },
                    "prediction": {
                        "class": "minivan",
                        "probability": 32.24
                    },
                    "colours": {
                        "colour1": {
                            "name": "black",
                            "r": 6.0,
                            "g": 6.0,
                            "b": 6.0,
                            "hex": "#060606",
                            "percent": 43.8159550526596
                        },
                        "colour2": {
                            "name": "light grey",
                            "r": 213.0,
                            "g": 199.0,
                            "b": 212.0,
                            "hex": "#d5c7d4",
                            "percent": 9.20472761640202
                        },
                        "colour3": {
                            "name": "dim grey",
                            "r": 104.0,
                            "g": 97.0,
                            "b": 103.0,
                            "hex": "#686167",
                            "percent": 5.915655856260411
                        },
                        "colour4": {
                            "name": "light slate grey",
                            "r": 154.0,
                            "g": 144.0,
                            "b": 158.0,
                            "hex": "#9a909e",
                            "percent": 8.14383357787722
                        },
                        "colour5": {
                            "name": "dark slate grey",
                            "r": 48.0,
                            "g": 44.0,
                            "b": 44.0,
                            "hex": "#302c2c",
                            "percent": 14.266916606183393
                        },
                        "colour6": {
                            "name": "white smoke",
                            "r": 241.0,
                            "g": 233.0,
                            "b": 242.0,
                            "hex": "#f1e9f2",
                            "percent": 4.561700772271334
                        },
                        "colour7": {
                            "name": "dark grey",
                            "r": 181.0,
                            "g": 170.0,
                            "b": 184.0,
                            "hex": "#b5aab8",
                            "percent": 6.560259616840631
                        },
                        "colour8": {
                            "name": "grey",
                            "r": 131.0,
                            "g": 122.0,
                            "b": 132.0,
                            "hex": "#837a84",
                            "percent": 7.53095090150538
                        }
                    }
                },
                "pr_analysis": {
                    "detection": {
                        "class": "Car",
                        "probability": 85.0
                    },
                    "prediction": {
                        "class": "minivan",
                        "probability": 61.22
                    },
                    "colours": {
                        "colour1": {
                            "name": "light slate grey",
                            "r": 151.0,
                            "g": 140.0,
                            "b": 152.0,
                            "hex": "#978c98",
                            "percent": 10.986960311671677
                        },
                        "colour2": {
                            "name": "dark slate grey",
                            "r": 38.0,
                            "g": 36.0,
                            "b": 36.0,
                            "hex": "#262424",
                            "percent": 15.368686958532724
                        },
                        "colour3": {
                            "name": "silver",
                            "r": 203.0,
                            "g": 188.0,
                            "b": 201.0,
                            "hex": "#cbbcc9",
                            "percent": 8.870723853912796
                        },
                        "colour4": {
                            "name": "dim grey",
                            "r": 100.0,
                            "g": 94.0,
                            "b": 99.0,
                            "hex": "#645e63",
                            "percent": 9.717858858271217
                        },
                        "colour5": {
                            "name": "black",
                            "r": 11.0,
                            "g": 11.0,
                            "b": 11.0,
                            "hex": "#0b0b0b",
                            "percent": 19.66342305160728
                        },
                        "colour6": {
                            "name": "gainsboro",
                            "r": 223.0,
                            "g": 209.0,
                            "b": 219.0,
                            "hex": "#dfd1db",
                            "percent": 9.403340864212904
                        },
                        "colour7": {
                            "name": "dark grey",
                            "r": 174.0,
                            "g": 162.0,
                            "b": 176.0,
                            "hex": "#aea2b0",
                            "percent": 8.297191041218223
                        },
                        "colour8": {
                            "name": "white smoke",
                            "r": 245.0,
                            "g": 238.0,
                            "b": 246.0,
                            "hex": "#f5eef6",
                            "percent": 5.028552114279615
                        },
                        "colour9": {
                            "name": "grey",
                            "r": 127.0,
                            "g": 117.0,
                            "b": 126.0,
                            "hex": "#7f757e",
                            "percent": 12.663262946293564
                        }
                    },
                    "license_plate": {
                        "plate_number": "DCU79S",
                        "plate_probability": 89.6
                    }
                }
            },
            "timing": {
                "get_duration_time": 0.001,
                "imageai_detection_time": 39.929,
                "imageai_prediction_time": 42.75,
                "imageai_colour_detection_time": 19.352,
                "total_imageai_analysis_time": 102.03,
                "pr_detection_time": 1.712,
                "pr_prediction_time": 49.112,
                "pr_colour_detection_time": 12.878,
                "total_pr_analysis_time": 63.703,
                "total_image_analysis_time": 165.821,
                "entry_total_time": 165.822
            }
        },
        {
            "analysis": {
                "arrival_time": "2020-03-27-15:54:19",
                "departure_time": "2020-03-27-17:25:00",
                "duration": {
                    "in_seconds": 5441,
                    "human_readable": "1 hours, 30 minutes and 41 seconds"
                },
                "images": {
                    "original": "/media/images/original/2020-03-27-15_54_19.jpg",
                    "extracted_imageai": "/media/images/extracted/imageai/2020-03-27-15_54_19_imageai.jpg",
                    "extracted_pr": "/media/images/extracted/pr/2020-03-27-15_54_19_pr.jpg",
                    "extracted_plate": "/media/images/extracted/plate/2020-03-27-15_54_19_plates.jpg",
                    "analyzed_comparison": "/media/images/analyzed/comparison/2020-03-27-15_54_19_analyzed_comparison.jpg",
                    "analyzed_imageai": "/media/images/analyzed/imageai/2020-03-27-15_54_19_analyzed_imageai.jpg",
                    "analyzed_pr": "/media/images/analyzed/pr/2020-03-27-15_54_19_analyzed_pr.jpg"
                },
                "successful_feed_in": null,
                "imageai_analysis": {
                    "detection": {
                        "class": "truck",
                        "probability": 87.67
                    },
                    "prediction": {
                        "class": "jeep",
                        "probability": 99.27
                    },
                    "colours": {
                        "colour1": {
                            "name": "dim grey",
                            "r": 75.0,
                            "g": 98.0,
                            "b": 123.0,
                            "hex": "#4b627b",
                            "percent": 11.997145972725193
                        },
                        "colour2": {
                            "name": "black",
                            "r": 32.0,
                            "g": 34.0,
                            "b": 30.0,
                            "hex": "#20221e",
                            "percent": 34.270405621895236
                        },
                        "colour3": {
                            "name": "dark slate grey",
                            "r": 71.0,
                            "g": 79.0,
                            "b": 94.0,
                            "hex": "#474f5e",
                            "percent": 24.566847511476688
                        },
                        "colour4": {
                            "name": "silver",
                            "r": 171.0,
                            "g": 180.0,
                            "b": 201.0,
                            "hex": "#abb4c9",
                            "percent": 3.245379033669445
                        },
                        "colour5": {
                            "name": "light slate grey",
                            "r": 128.0,
                            "g": 146.0,
                            "b": 171.0,
                            "hex": "#8092ab",
                            "percent": 9.85103862360496
                        },
                        "colour6": {
                            "name": "golden rod",
                            "r": 233.0,
                            "g": 193.0,
                            "b": 29.0,
                            "hex": "#e9c11d",
                            "percent": 0.4307965697823131
                        },
                        "colour7": {
                            "name": "dark olive green",
                            "r": 67.0,
                            "g": 63.0,
                            "b": 29.0,
                            "hex": "#433f1d",
                            "percent": 5.072091113474509
                        },
                        "colour8": {
                            "name": "slate grey",
                            "r": 102.0,
                            "g": 119.0,
                            "b": 140.0,
                            "hex": "#66778c",
                            "percent": 10.566295553371656
                        }
                    }
                },
                "pr_analysis": {
                    "detection": {
                        "class": "Car",
                        "probability": 70.5
                    },
                    "prediction": {
                        "class": "jeep",
                        "probability": 94.26
                    },
                    "colours": {
                        "colour1": {
                            "name": "dark slate blue",
                            "r": 70.0,
                            "g": 90.0,
                            "b": 113.0,
                            "hex": "#465a71",
                            "percent": 15.57629723294735
                        },
                        "colour2": {
                            "name": "dark slate grey",
                            "r": 36.0,
                            "g": 39.0,
                            "b": 28.0,
                            "hex": "#24271c",
                            "percent": 30.53935873376689
                        },
                        "colour3": {
                            "name": "dark grey",
                            "r": 161.0,
                            "g": 176.0,
                            "b": 202.0,
                            "hex": "#a1b0ca",
                            "percent": 3.968490354693647
                        },
                        "colour4": {
                            "name": "light slate grey",
                            "r": 126.0,
                            "g": 144.0,
                            "b": 169.0,
                            "hex": "#7e90a9",
                            "percent": 12.655387465944038
                        },
                        "colour5": {
                            "name": "golden rod",
                            "r": 236.0,
                            "g": 195.0,
                            "b": 28.0,
                            "hex": "#ecc31c",
                            "percent": 0.5676450541880382
                        },
                        "colour6": {
                            "name": "dark olive green",
                            "r": 69.0,
                            "g": 64.0,
                            "b": 30.0,
                            "hex": "#45401e",
                            "percent": 6.792371464438357
                        },
                        "colour7": {
                            "name": "black",
                            "r": 13.0,
                            "g": 16.0,
                            "b": 18.0,
                            "hex": "#0d1012",
                            "percent": 12.24233044196462
                        },
                        "colour8": {
                            "name": "slate grey",
                            "r": 93.0,
                            "g": 116.0,
                            "b": 141.0,
                            "hex": "#5d748d",
                            "percent": 13.48853654837454
                        },
                        "colour9": {
                            "name": "dim grey",
                            "r": 111.0,
                            "g": 95.0,
                            "b": 87.0,
                            "hex": "#6f5f57",
                            "percent": 4.16958270368252
                        }
                    },
                    "license_plate": {
                        "plate_number": "WM850",
                        "plate_probability": 89.9
                    }
                }
            },
            "timing": {
                "get_duration_time": 0.0,
                "imageai_detection_time": 46.951,
                "imageai_prediction_time": 56.07,
                "imageai_colour_detection_time": 44.316,
                "total_imageai_analysis_time": 147.338,
                "pr_detection_time": 1.886,
                "pr_prediction_time": 54.616,
                "pr_colour_detection_time": 45.574,
                "total_pr_analysis_time": 102.076,
                "total_image_analysis_time": 249.504,
                "entry_total_time": 249.505
            }
        }
    ],
    "total_times": {
        "total_get_duration_time": 0.085,
        "total_imageai_detection_time": 218.819,
        "total_imageai_prediction_time": 248.854,
        "total_imageai_colour_detection_time": 426.868,
        "total_imageai_analysis_time": 894.541,
        "total_pr_detection_time": 14.621,
        "total_pr_prediction_time": 54.616,
        "total_pr_colour_detection_time": 158.125,
        "total_pr_analysis_time": 428.87,
        "total_image_analysis_time": 1324.281,
        "total_entry_time": 1324.368,
        "total_day_time": 1324.384
    },
    "log_file": "files/log/2020-03-27.log"
}